{
    
    "tests" : [
        {
            "id":"ABKiev5",
             "title":{
             "ua":"AB Київ 5-те видання",
             "ru":"AB Киев 5-е издание"
             },
            "image":"test_abkiev5.jpg"
        }
    ],
    "pddRazdeli" : [
                    {
                    "image":"pdd_menu_ua-flag",
                    "razdelName":{
                    "ua":"ПДР",
                    "ru":"ПДД"
                    },
                    "chapters":[
                                {
                                "id":"pdd_1",
                                "title":{
                                "ua":"Загальні положення",
                                "ru":"Общие положения"
                                }
                                },
                                {
                                "id":"pdd_2",
                                "title":{
                                "ua":"Обов'язки і права водіїв механічних транспортних засобів",
                                "ru":"Обязанности и права водителей механических транспортных средств"
                                }
                                },
                                {
                                "id":"pdd_3",
                                "title":{
                                "ua":"Рух транспортних засобів із спеціальними сигналами",
                                "ru":"Движение транспортных средств со специальными сигналами"
                                }
                                },
                                {
                                "id":"pdd_4",
                                "title":{
                                "ua":"Обов'язки і права пішоходів",
                                "ru":"Обязанности и права пешеходов"
                                }
                                },
                                {
                                "id":"pdd_5",
                                "title":{
                                "ua":"Обов'язки і права пасажирів",
                                "ru":"Обязанности и права пассажиров"
                                }
                                },
                                {
                                "id":"pdd_6",
                                "title":{
                                "ua":"Вимоги до велосипедистів",
                                "ru":"Требования к велосипедистам"
                                }
                                },
                                {
                                "id":"pdd_7",
                                "title":{
                                "ua":"Вимоги до осіб, які керують гужовим транспортом, і погоничів тварин",
                                "ru":"Требования к лицам, управляющим гужевым транспортом, и погонщикам животных"
                                }
                                },
                                {
                                "id":"pdd_8",
                                "title":{
                                "ua":"Регулювання дорожнього руху",
                                "ru":"Регулирование дорожного движения"
                                }
                                },
                                {
                                "id":"pdd_9",
                                "title":{
                                "ua":"Попереджувальні сигнали",
                                "ru":"Предупредительные сигналы"
                                }
                                },
                                {
                                "id":"pdd_10",
                                "title":{
                                "ua":"Початок руху та зміна його напрямку",
                                "ru":"Начало движения и изменение его направления"
                                }
                                },
                                {
                                "id":"pdd_11",
                                "title":{
                                "ua":"Розташування транспортних засобів на дорозі",
                                "ru":"Расположение транспортных средств на дороге"
                                }
                                },
                                {
                                "id":"pdd_12",
                                "title":{
                                "ua":"Швидкість руху",
                                "ru":"Скорость движения"
                                }
                                },
                                {
                                "id":"pdd_13",
                                "title":{
                                "ua":"Дистанція, інтервал, зустрічний роз'їзд",
                                "ru":"Дистанция, интервал, встречный разъезд"
                                }
                                },
                                {
                                "id":"pdd_14",
                                "title":{
                                "ua":"Обгін",
                                "ru":"Обгон"
                                }
                                },
                                {
                                "id":"pdd_15",
                                "title":{
                                "ua":"Зупинка і стоянка",
                                "ru":"Остановка и стоянка"
                                }
                                },
                                {
                                "id":"pdd_16",
                                "title":{
                                "ua":"Проїзд перехресть",
                                "ru":"Проезд перекрестков"
                                }
                                },
                                {
                                "id":"pdd_17",
                                "title":{
                                "ua":"Переваги маршрутних транспортних засобів",
                                "ru":"Преимущества маршрутных транспортных средств"
                                }
                                },
                                {
                                "id":"pdd_18",
                                "title":{
                                "ua":"Проїзд пішохідних переходів і зупинок транспортних засобів",
                                "ru":"Проезд пешеходных переходов и остановок транспортных средств"
                                }
                                },
                                {
                                "id":"pdd_19",
                                "title":{
                                "ua":"Користування зовнішніми світловими приладами",
                                "ru":"Использование внешних световых приборов"
                                }
                                },
                                {
                                "id":"pdd_20",
                                "title":{
                                "ua":"Рух через залізничні переїзди",
                                "ru":"Движение через железнодорожные переезды"
                                }
                                },
                                {
                                "id":"pdd_21",
                                "title":{
                                "ua":"Перевезення пасажирів",
                                "ru":"Перевозка пассажиров"
                                }
                                },
                                {
                                "id":"pdd_22",
                                "title":{
                                "ua":"Перевезення вантажу",
                                "ru":"Перевозка груза"
                                }
                                },
                                {
                                "id":"pdd_23",
                                "title":{
                                "ua":"Буксирування та експлуатація транспортних составів",
                                "ru":"Буксировка и эксплуатация транспортных составов"
                                }
                                },
                                {
                                "id":"pdd_24",
                                "title":{
                                "ua":"Навчальна їзда",
                                "ru":"Учебная езда"
                                }
                                },
                                {
                                "id":"pdd_25",
                                "title":{
                                "ua":"Рух транспортних засобів у колонах",
                                "ru":"Движение транспортных средств в колоннах"
                                }
                                },
                                {
                                "id":"pdd_26",
                                "title":{
                                "ua":"Рух у житловій та пішохідній зоні",
                                "ru":"Движение в жилой и пешеходной зоне"
                                }
                                },
                                {
                                "id":"pdd_27",
                                "title":{
                                "ua":"Рух по автомагістралях і дорогах для автомобілів",
                                "ru":"Движение по автомагистралям и дорогам для автомобилей"
                                }
                                },
                                {
                                "id":"pdd_28",
                                "title":{
                                "ua":"Рух по гірських дорогах і на крутих спусках",
                                "ru":"Движение по горным дорогам и на крутых спусках"
                                }
                                },
                                {
                                "id":"pdd_29",
                                "title":{
                                "ua":"Міжнародний рух",
                                "ru":"Международное движение"
                                }
                                },
                                {
                                "id":"pdd_30",
                                "title":{
                                "ua":"Номерні, розпізнавальні знаки, написи і позначення",
                                "ru":"Номерные, опознавательные знаки, надписи и обозначения"
                                }
                                },
                                {
                                "id":"pdd_31",
                                "title":{
                                "ua":"Технічний стан і обладнання транспортних засобів",
                                "ru":"Техническое состояние транспортных средств и их оснащение"
                                }
                                },
                                {
                                "id":"pdd_32",
                                "title":{
                                "ua":"Окремі питання організації дорожнього руху, що потребують узгодження з Державтоінспекцією",
                                "ru":"Отдельные вопросы дорожного движения, которые требуют согласования с Госавтоинспекцией"
                                }
                                }
                                ]
                    },
                    {
                    "image":"5.35.1",
                    "razdelName":{
                    "ua":"33. Дорожні знаки",
                    "ru":"33. Дорожные знаки"
                    },
                    "chapters":[
                                {
                                "id":"pdd_33.1",
                                "title":{
                                "ua":"Попереджувальні знаки",
                                "ru":"Предупреждающие знаки"
                                }
                                },
                                {
                                "id":"pdd_33.2",
                                "title":{
                                "ua":"Знаки пріоритету",
                                "ru":"Знаки приоритета"
                                }
                                },
                                {
                                "id":"pdd_33.3",
                                "title":{
                                "ua":"Заборонні знаки",
                                "ru":"Запрещающие знаки"
                                }
                                },
                                {
                                "id":"pdd_33.4",
                                "title":{
                                "ua":"Наказові знаки",
                                "ru":"Предписывающие знаки"
                                }
                                },
                                {
                                "id":"pdd_33.5",
                                "title":{
                                "ua":"Інформаційно-вказівні знаки",
                                "ru":"Информационно-указательные знаки"
                                }
                                },
                                {
                                "id":"pdd_33.6",
                                "title":{
                                "ua":"Знаки сервісу",
                                "ru":"Знаки сервиса"
                                }
                                },
                                {
                                "id":"pdd_33.7",
                                "title":{
                                "ua":"Таблички до дорожніх знаків",
                                "ru":"Таблички к дорожным знакам"
                                }
                                }
                                ]
                    },
                    {
                    "image":"pdd_menu_razmetka",
                    "razdelName":{
                    "ua":"34. Дорожня розмітка",
                    "ru":"34. Дорожная разметка"
                    },
                    "chapters":[
                                {
                                "id":"pdd_34.1",
                                "title":{
                                "ua":"Горизонтальна розмітка",
                                "ru":"Горизонтальная разметка"
                                }
                                },
                                {
                                "id":"pdd_34.2",
                                "title":{
                                "ua":"Вертикальна розмітка",
                                "ru":"Вертикальная разметка"
                                }
                                }
                                ]
                    }
                    ],
    "raznoe":[
              {
              "id":"shtrafiGAI",
              "image":"pdd_menu_shtrafGAI",
              "title":{
              "ua":"Таблиця штрафів ДАІ",
              "ru":"Таблица штрафов ГАИ"
              }
              },
              {
              "id":"svetofori",
              "image":"pdd_menu_svetofor",
              "title":{
              "ua":"Світлофори",
              "ru":"Светофоры"
              }
              },
              {
              "id":"pervayaPomosh",
              "image":"pdd_menu_firstAid",
              "title":{
              "ua":"Перша допомога при ДТП",
              "ru":"Первая помощь при ДТП"
              }
              },
              {
              "id":"literatura",
              "image":"pdd_menu_literatura",
              "title":{
              "ua":"Навчальна література",
              "ru":"Учебная литература"
              }
              }
              ]
}
